,Features,Feature_importance_rf,Feature_importance_xgboost,Feature_importance_gbr
0,total_cases,0.2132210638456489,0.07792689,0.2932553553165548
1,new_cases,0.17670720939152262,0.2069512,0.28094835947148367
2,total_deaths,0.053270538913724616,0.0450196,0.017356191650673092
3,new_deaths,0.013451593769165217,0.041221462,0.010380013589804045
4,total_cases_per_million,0.12254729079170618,0.08789581,0.12886117690236623
5,new_cases_per_million,0.04629186306831694,0.07243667,0.05068174558356614
6,total_deaths_per_million,0.08403105222638725,0.058650214,0.05713739387813327
7,new_deaths_per_million,0.010917851709843914,0.040775333,0.007377104352643191
8,new_tests,0.013901509077324231,0.02938788,0.0029825648312100106
9,total_tests,0.02613639462926702,0.039625134,0.013783499620234108
10,total_tests_per_thousand,0.026514635348290985,0.036095217,0.008925730871423862
11,new_tests_per_thousand,0.012448773663894613,0.027712096,0.00411823494137742
12,positive_rate,0.02317287090899627,0.037392505,0.004441182956503997
13,tests_per_case,0.021055235508490314,0.057992402,0.023681834867114466
14,stringency_index,0.08527741043054547,0.0737062,0.07126356278611233
15,population_density,0.07105470671687535,0.06721135,0.024806048380799285
