,Performance Metrics,Random Forest,XGBOOST,Gradient Boosting,KNN,SVR
0,MAE,0.03724944279779955,0.06419441239919786,0.04559148442477449,0.0742235767430692,0.17665066831322135
1,MSE,0.006093022461409249,0.010099583135277887,0.006802026497616456,0.019985649497155273,0.07543059985759275
2,RMSE,0.07805781486442757,0.1004966822102993,0.08247439904368177,0.14137061044345559,0.27464631775720705
3,R-Squared,0.9255298671166363,0.8765608853546281,0.9168642787119319,0.7557314151982877,0.07807219972605584
4,RAE,0.07502651613081797,0.09659399205627482,0.07927158659228851,0.135880621348178,0.26398069719565376
5,RRSE,0.27289216347003786,0.35133903091652335,0.2883326573388129,0.49423535365419924,0.9601707141304994
